$ 1 0.000005 10.20027730826997 50 5 43
g 288 192 336 192 0
R 32 224 -32 224 0 0 40 5 0 0 0.5
162 64 192 144 192 1 2 1 0 0 0.025
162 64 224 144 224 1 3.5 0 1 0 0.025
162 64 256 144 256 1 3.5 0 0 1 0.025
r 288 192 224 192 0 150
w 64 192 64 224 0
w 64 256 64 224 0
w 64 224 32 224 0
w 144 192 224 192 0
g 272 224 336 224 0
g 272 256 336 256 0
w 208 224 144 224 0
w 144 256 208 256 0
r 272 224 208 224 0 150
r 272 240 208 240 0 150
w 208 224 208 240 0
w 272 224 272 240 0
w 272 256 272 272 0
w 208 256 208 272 0
r 272 272 208 272 0 150
r 272 256 208 256 0 150
